<?xml version="1.0" encoding="UTF-8" standalone="no"?>
<!-- Created with Inkscape (http://www.inkscape.org/) -->

<svg
   xmlns:dc="http://purl.org/dc/elements/1.1/"
   xmlns:cc="http://creativecommons.org/ns#"
   xmlns:rdf="http://www.w3.org/1999/02/22-rdf-syntax-ns#"
   xmlns:svg="http://www.w3.org/2000/svg"
   xmlns="http://www.w3.org/2000/svg"
   xmlns:sodipodi="http://sodipodi.sourceforge.net/DTD/sodipodi-0.dtd"
   xmlns:inkscape="http://www.inkscape.org/namespaces/inkscape"
   width="210mm"
   height="297mm"
   viewBox="0 0 744.09448819 1052.3622047"
   id="svg2"
   version="1.1"
   inkscape:version="0.91 r13725"
   sodipodi:docname="sadaharu.svg">
  <defs
     id="defs4" />
  <sodipodi:namedview
     id="base"
     pagecolor="#342222"
     bordercolor="#666666"
     borderopacity="1.0"
     inkscape:pageopacity="0"
     inkscape:pageshadow="2"
     inkscape:zoom="1.4142136"
     inkscape:cx="352.70318"
     inkscape:cy="661.75276"
     inkscape:document-units="px"
     inkscape:current-layer="layer1"
     showgrid="true"
     inkscape:window-width="1344"
     inkscape:window-height="792"
     inkscape:window-x="80"
     inkscape:window-y="0"
     inkscape:window-maximized="0">
    <inkscape:grid
       type="xygrid"
       id="grid3336" />
  </sodipodi:namedview>
  <metadata
     id="metadata7">
    <rdf:RDF>
      <cc:Work
         rdf:about="">
        <dc:format>image/svg+xml</dc:format>
        <dc:type
           rdf:resource="http://purl.org/dc/dcmitype/StillImage" />
        <dc:title></dc:title>
      </cc:Work>
    </rdf:RDF>
  </metadata>
  <g
     inkscape:label="Layer 1"
     inkscape:groupmode="layer"
     id="layer1">
    <g
       id="g4316"
       transform="translate(6,-14)">
      <path
         sodipodi:type="star"
         style="fill:#f2f2f2;fill-opacity:1;stroke:#000000;stroke-width:1.74906015;stroke-miterlimit:4;stroke-dasharray:none;stroke-opacity:1"
         id="path4303"
         sodipodi:sides="3"
         sodipodi:cx="-480"
         sodipodi:cy="112.3622"
         sodipodi:r1="141.61716"
         sodipodi:r2="80.622574"
         sodipodi:arg1="-1.3511033"
         sodipodi:arg2="-0.30390574"
         inkscape:flatsided="true"
         inkscape:rounded="0.12"
         inkscape:randomized="0"
         d="m -449.13737,-25.851105 c 28.7271,6.414678 93.32111,212.376725 73.40229,234.047775 -19.91883,21.67106 -230.58419,-25.36991 -239.39247,-53.45564 -8.80827,-28.08574 137.26309,-187.006813 165.99018,-180.592135 z"
         inkscape:transform-center-x="18.925895"
         inkscape:transform-center-y="37.170253"
         transform="matrix(-0.17933428,-0.66855286,-0.74066462,0.05506302,107.18442,-197.12729)" />
      <path
         transform="matrix(-0.12370125,-0.46115459,-0.51089588,0.03798139,110.08301,-92.550043)"
         inkscape:transform-center-y="25.639311"
         inkscape:transform-center-x="13.054713"
         d="m -449.13737,-25.851105 c 28.7271,6.414678 93.32111,212.376725 73.40229,234.047775 -19.91883,21.67106 -230.58419,-25.36991 -239.39247,-53.45564 -8.80827,-28.08574 137.26309,-187.006813 165.99018,-180.592135 z"
         inkscape:randomized="0"
         inkscape:rounded="0.12"
         inkscape:flatsided="true"
         sodipodi:arg2="-0.30390574"
         sodipodi:arg1="-1.3511033"
         sodipodi:r2="80.622574"
         sodipodi:r1="141.61716"
         sodipodi:cy="112.3622"
         sodipodi:cx="-480"
         sodipodi:sides="3"
         id="path4299"
         style="fill:#ffaaaa;stroke:none;stroke-width:4;stroke-miterlimit:4;stroke-dasharray:none;stroke-opacity:1"
         sodipodi:type="star" />
    </g>
    <g
       id="g4320"
       transform="matrix(-1,0,0,1,730.55891,0)">
      <path
         transform="matrix(-0.17933428,-0.66855286,-0.74066462,0.05506302,107.18442,-197.12729)"
         inkscape:transform-center-y="37.170253"
         inkscape:transform-center-x="18.925895"
         d="m -449.13737,-25.851105 c 28.7271,6.414678 93.32111,212.376725 73.40229,234.047775 -19.91883,21.67106 -230.58419,-25.36991 -239.39247,-53.45564 -8.80827,-28.08574 137.26309,-187.006813 165.99018,-180.592135 z"
         inkscape:randomized="0"
         inkscape:rounded="0.12"
         inkscape:flatsided="true"
         sodipodi:arg2="-0.30390574"
         sodipodi:arg1="-1.3511033"
         sodipodi:r2="80.622574"
         sodipodi:r1="141.61716"
         sodipodi:cy="112.3622"
         sodipodi:cx="-480"
         sodipodi:sides="3"
         id="path4322"
         style="fill:#f2f2f2;fill-opacity:1;stroke:#000000;stroke-width:1.74906015;stroke-miterlimit:4;stroke-dasharray:none;stroke-opacity:1"
         sodipodi:type="star" />
      <path
         sodipodi:type="star"
         style="fill:#ffaaaa;stroke:none;stroke-width:4;stroke-miterlimit:4;stroke-dasharray:none;stroke-opacity:1"
         id="path4324"
         sodipodi:sides="3"
         sodipodi:cx="-480"
         sodipodi:cy="112.3622"
         sodipodi:r1="141.61716"
         sodipodi:r2="80.622574"
         sodipodi:arg1="-1.3511033"
         sodipodi:arg2="-0.30390574"
         inkscape:flatsided="true"
         inkscape:rounded="0.12"
         inkscape:randomized="0"
         d="m -449.13737,-25.851105 c 28.7271,6.414678 93.32111,212.376725 73.40229,234.047775 -19.91883,21.67106 -230.58419,-25.36991 -239.39247,-53.45564 -8.80827,-28.08574 137.26309,-187.006813 165.99018,-180.592135 z"
         inkscape:transform-center-x="13.054713"
         inkscape:transform-center-y="25.639311"
         transform="matrix(-0.12370125,-0.46115459,-0.51089588,0.03798139,110.08301,-92.550043)" />
    </g>
    <path
       style="fill:#f2f2f2;stroke:none;stroke-width:1.37780404;stroke-opacity:1"
       d="M 356.36133 46.642578 C 258.88245 48.263522 164.15796 105.20773 117.78595 191.09907 C 75.281649 267.72078 70.48692 365.04565 108.70001 444.32864 C 132.16567 492.59999 173.95499 531.2358 223.23241 552.21086 C 247.92665 563.10421 274.31576 569.4585 300.75858 574.36576 C 314.69616 578.69544 327.50771 587.01278 342.39844 587.90234 C 367.40189 591.13495 392.62509 588.44923 417.72266 588.49219 C 434.71573 587.90449 452.74027 584.59902 465.86337 572.96557 C 473.77013 566.63684 482.29979 560.93845 491.96631 557.68611 C 520.96801 546.8583 548.07321 530.68126 570.49937 509.25488 C 598.59712 482.78622 619.62171 448.84983 630.35289 411.73802 C 657.40054 325.53051 640.29656 226.36153 584.24655 155.21723 C 541.98128 100.30031 478.6515 61.946012 410.21673 50.639273 C 392.44751 47.58418 374.38515 46.28862 356.36133 46.642578 z "
       id="path3340"
       inkscape:connector-curvature="0"
       sodipodi:nodetypes="sscccss" />
    <g
       id="g4151"
       transform="translate(-329.77953,-6.8977531)">
      <circle
         style="fill:#333333;stroke:#000000;stroke-opacity:1"
         id="circle4153"
         cx="-520"
         cy="412.36221"
         r="120" />
      <ellipse
         style="fill:#e6e6e6;stroke:#000000;stroke-width:1.20285869;stroke-opacity:1"
         id="ellipse4155"
         cx="-573.8501"
         cy="359.50504"
         rx="34.61993"
         ry="41.327141" />
    </g>
    <g
       id="g4193"
       transform="matrix(0.41464218,0,0,0.41464218,697.92468,146.20306)">
      <circle
         r="120"
         cy="412.36221"
         cx="-520"
         id="path4143"
         style="fill:#333333;stroke:none;stroke-opacity:1" />
      <ellipse
         ry="41.327141"
         rx="34.61993"
         cy="359.50504"
         cx="-569.80951"
         id="path4145"
         style="fill:#e6e6e6;stroke:none;stroke-width:1.20285869;stroke-opacity:1" />
      <path
         sodipodi:nodetypes="ccccccc"
         inkscape:connector-curvature="0"
         id="circle4168"
         d="m -629.19101,452.81417 c 18.14521,51.26444 68.1744,84.52244 122.14075,81.19572 54.00007,-3.40837 98.51051,-42.61643 108.63751,-95.69588 l -8.32668,-32.02902 c -10.79661,33.67308 -68.96735,91.46934 -104.35813,93.71596 -35.39235,2.1984 -86.69543,-45.87656 -102.5442,-77.87349 z"
         style="fill:#4d4d4d;stroke:none;stroke-width:1.00023067;stroke-opacity:1" />
      <path
         sodipodi:nodetypes="cscccc"
         inkscape:connector-curvature="0"
         id="path4180"
         d="m -620.89927,346.49798 c -24.38186,48.0197 -38.01073,82.09099 -22.31416,110.64192 12.77049,23.22835 49.39688,55.09543 90.75068,62.96927 -43.79112,-14.17597 -75.61491,-52.15109 -81.91331,-97.7466 -3.49798,-25.9818 1.60877,-52.3943 14.53955,-75.19967 -0.36373,-0.21307 -0.72269,-0.43093 -1.06276,-0.66492 z"
         style="fill:#333333;stroke:none;stroke-opacity:1" />
      <path
         style="fill:#333333;stroke:none;stroke-opacity:1"
         d="m -422.95012,485.3237 c 29.24971,-45.2197 46.35241,-77.68656 33.71425,-107.71679 -10.28224,-24.43189 -43.39111,-59.93971 -83.70017,-72.07701 42.07687,18.65897 69.77321,59.74152 71.2894,105.74502 0.77342,26.2048 -7.05596,51.94193 -22.29122,73.2768 0.33957,0.24979 0.67389,0.50385 0.98774,0.77198 z"
         id="path4191"
         inkscape:connector-curvature="0"
         sodipodi:nodetypes="cscccc" />
    </g>
    <g
       id="g4217"
       transform="matrix(0.41464218,0,0,0.41464218,582.7033,-2.5429961)">
      <circle
         transform="scale(-1,1)"
         style="fill:#333333;stroke:none;stroke-opacity:1"
         id="circle4202"
         cx="826.07349"
         cy="767.93591"
         r="120" />
      <ellipse
         transform="scale(-1,1)"
         style="fill:#e6e6e6;stroke:none;stroke-width:1.20285869;stroke-opacity:1"
         id="ellipse4204"
         cx="879.29956"
         cy="717.09906"
         rx="34.61993"
         ry="41.327141" />
      <path
         style="fill:#4d4d4d;stroke:none;stroke-width:1.00023067;stroke-opacity:1"
         d="m -716.88249,808.38787 c -18.14521,51.26444 -68.1744,84.52244 -122.14075,81.19572 -54.00007,-3.40837 -98.51051,-42.61643 -108.63751,-95.69588 l 8.32668,-32.02902 c 10.79661,33.67308 68.96735,91.46934 104.35813,93.71596 35.39235,2.1984 86.69543,-45.87656 102.5442,-77.87349 z"
         id="path4206"
         inkscape:connector-curvature="0"
         sodipodi:nodetypes="ccccccc" />
      <path
         style="fill:#333333;stroke:none;stroke-opacity:1"
         d="m -725.17423,702.07168 c 24.38186,48.0197 38.01073,82.09099 22.31416,110.64192 -12.77049,23.22835 -49.39688,55.09543 -90.75068,62.96927 43.79112,-14.17597 75.61491,-52.15109 81.91331,-97.7466 3.49798,-25.9818 -1.60877,-52.3943 -14.53955,-75.19967 0.36373,-0.21307 0.72269,-0.43093 1.06276,-0.66492 z"
         id="path4208"
         inkscape:connector-curvature="0"
         sodipodi:nodetypes="cscccc" />
      <path
         sodipodi:nodetypes="cscccc"
         inkscape:connector-curvature="0"
         id="path4210"
         d="m -923.12338,840.8974 c -29.24971,-45.2197 -46.35241,-77.68656 -33.71425,-107.71679 10.28224,-24.43189 43.39111,-59.93971 83.70017,-72.07701 -42.07687,18.65897 -69.77321,59.74152 -71.2894,105.74502 -0.77342,26.2048 7.05596,51.94193 22.29122,73.2768 -0.33957,0.24979 -0.67389,0.50385 -0.98774,0.77198 z"
         style="fill:#333333;stroke:none;stroke-opacity:1" />
    </g>
    <g
       id="g4254"
       transform="matrix(0.31215687,0,0,0.31215687,465.06326,247.52799)">
      <path
         transform="matrix(1.6148798,-0.06129188,-0.04503296,-1.1865,724.69986,1046.3589)"
         inkscape:transform-center-y="24.079139"
         inkscape:transform-center-x="-2.9879496"
         d="m -557.14282,523.79074 c -11.77795,23.55589 -140.12999,31.25998 -154.64102,9.28203 -14.51103,-21.97794 42.99306,-136.98612 69.28203,-138.56406 26.28898,-1.57795 97.13693,105.72614 85.35899,129.28203 z"
         inkscape:randomized="0"
         inkscape:rounded="0.17"
         inkscape:flatsided="true"
         sodipodi:arg2="1.5108452"
         sodipodi:arg1="0.46364761"
         sodipodi:r2="44.721359"
         sodipodi:r1="89.442719"
         sodipodi:cy="483.79074"
         sodipodi:cx="-637.14282"
         sodipodi:sides="3"
         id="path4178"
         style="fill:#502d16;stroke:none;stroke-opacity:1"
         sodipodi:type="star" />
      <path
         inkscape:connector-curvature="0"
         id="path4250"
         d="m -330.64648,435.48251 c -31.11489,0.71651 -62.25832,3.26177 -92.70643,8.9215 -9.16254,1.94821 -18.47949,4.87229 -25.30334,10.68246 -3.91061,3.56709 -3.16486,9.87182 1.34436,12.8213 5.19713,4.47924 12.41235,6.46604 19.22347,8.44618 17.62328,4.63263 36.07905,5.96976 54.28015,7.96154 50.63324,4.94185 102.26736,1.85907 151.71131,-8.64116 8.2301,-1.96626 16.54782,-4.8094 22.67118,-10.0858 2.9775,-3.04856 2.77086,-8.03623 -0.66519,-10.76906 -4.25253,-4.22995 -10.62706,-6.11523 -16.58757,-7.92096 -14.63922,-4.20113 -30.09188,-5.46141 -45.28621,-7.37772 -22.76517,-2.55203 -45.70339,-4.28153 -68.68173,-4.03828 z"
         style="fill:#6c5353;stroke:none;stroke-opacity:1" />
    </g>
    <g
       id="g4295"
       transform="matrix(0.21758306,0,0,0.21758306,380.35913,328.93722)">
      <path
         id="path4264"
         d="m -71.931641,668.36133 c 0.218414,0.53238 0.42829,1.06856 0.654297,1.59765 28.82123,67.47219 118.46243,108.75572 211.123044,119.91993 53.83162,6.4859 109.0855,2.85081 154.57422,-12.83985 l -10.14844,-7.67187 C 241.92527,782.55762 191.02773,785.83107 141.05859,779.81055 51.783994,769.0543 -33.336481,728.78533 -60.892578,668.36133 l -11.039063,0 z"
         style="color:#000000;font-style:normal;font-variant:normal;font-weight:normal;font-stretch:normal;font-size:medium;line-height:normal;font-family:sans-serif;text-indent:0;text-align:start;text-decoration:none;text-decoration-line:none;text-decoration-style:solid;text-decoration-color:#000000;letter-spacing:normal;word-spacing:normal;text-transform:none;direction:ltr;block-progression:tb;writing-mode:lr-tb;baseline-shift:baseline;text-anchor:start;white-space:normal;clip-rule:nonzero;display:inline;overflow:visible;visibility:visible;opacity:1;isolation:auto;mix-blend-mode:normal;color-interpolation:sRGB;color-interpolation-filters:linearRGB;solid-color:#000000;solid-opacity:1;fill:#483737;fill-opacity:1;fill-rule:nonzero;stroke:none;stroke-width:10.14109802;stroke-linecap:butt;stroke-linejoin:miter;stroke-miterlimit:4;stroke-dasharray:none;stroke-dashoffset:0;stroke-opacity:1;color-rendering:auto;image-rendering:auto;shape-rendering:auto;text-rendering:auto;enable-background:accumulate"
         inkscape:connector-curvature="0" />
      <path
         id="path4280"
         d="m -73.109375,668.36133 c -31.957735,54.85862 -112.507405,91.29783 -196.761715,101.44922 -50.2286,6.05179 -101.39457,2.71211 -143.8711,-10.65039 l -10.125,7.65625 c 45.60923,15.8771 101.12603,19.57868 155.20899,13.0625 88.74775,-10.69277 174.71743,-49.0197 207.142575,-111.51758 l -11.59375,0 z"
         style="color:#000000;font-style:normal;font-variant:normal;font-weight:normal;font-stretch:normal;font-size:medium;line-height:normal;font-family:sans-serif;text-indent:0;text-align:start;text-decoration:none;text-decoration-line:none;text-decoration-style:solid;text-decoration-color:#000000;letter-spacing:normal;word-spacing:normal;text-transform:none;direction:ltr;block-progression:tb;writing-mode:lr-tb;baseline-shift:baseline;text-anchor:start;white-space:normal;clip-rule:nonzero;display:inline;overflow:visible;visibility:visible;opacity:1;isolation:auto;mix-blend-mode:normal;color-interpolation:sRGB;color-interpolation-filters:linearRGB;solid-color:#000000;solid-opacity:1;fill:#483737;fill-opacity:1;fill-rule:nonzero;stroke:none;stroke-width:10.14109802;stroke-linecap:butt;stroke-linejoin:miter;stroke-miterlimit:4;stroke-dasharray:none;stroke-dashoffset:0;stroke-opacity:1;color-rendering:auto;image-rendering:auto;shape-rendering:auto;text-rendering:auto;enable-background:accumulate"
         inkscape:connector-curvature="0" />
    </g>
    <g
       id="g4361"
       transform="matrix(0.21116537,0,0,0.22885835,318.91075,153.29283)"
       style="fill:#916f6f">
      <path
         id="path4330"
         d="m -360.03711,95.060547 a 238.24548,168.05284 17.203155 0 0 -176.16211,97.894533 238.24548,168.05284 17.203155 0 0 -5.21875,18.70508 l 2.83203,0.60351 a 167.08412,128.91755 25.061068 0 1 1.99024,-6.95898 167.08412,128.91755 25.061068 0 1 121.67773,-76.24805 167.08412,128.91755 25.061068 0 1 75.03516,14.01758 167.08412,128.91755 25.061068 0 1 118.92773,136.98633 l 142.558596,30.42773 A 238.24548,168.05284 17.203155 0 0 -251.4043,113.05859 238.24548,168.05284 17.203155 0 0 -360.03711,95.060547 Z"
         style="fill:#916f6f;fill-opacity:1;stroke:none;stroke-width:1.24300003;stroke-miterlimit:4;stroke-dasharray:none;stroke-opacity:1"
         inkscape:connector-curvature="0" />
      <circle
         r="84.973656"
         cy="295.36221"
         cx="-161"
         id="path4328"
         style="fill:#916f6f;fill-opacity:1;stroke:none;stroke-width:1.29568207;stroke-miterlimit:4;stroke-dasharray:none;stroke-opacity:1" />
      <path
         inkscape:connector-curvature="0"
         id="circle4345"
         d="m -233.56008,222.43306 a 43.604315,143.95055 0.01119999 0 1 -2.05959,40.03974 l 11.14494,-0.18521 a 43.604315,143.95055 0.01119999 0 0 2.05373,-40.03965 l -11.13908,0.18512 z"
         style="fill:#916f6f;fill-opacity:1;stroke:none;stroke-width:1.29568207;stroke-miterlimit:4;stroke-dasharray:none;stroke-opacity:1" />
    </g>
    <rect
       style="fill:#ffffff;fill-opacity:1;stroke:none;stroke-width:1.24300003;stroke-miterlimit:4;stroke-dasharray:none;stroke-opacity:1"
       id="rect4353"
       width="200"
       height="60"
       x="-380"
       y="792.36218" />
    <g
       transform="matrix(-0.21763378,0,0,0.23586873,408.11887,156.62653)"
       id="g4366"
       style="fill:#916f6f">
      <path
         inkscape:connector-curvature="0"
         style="fill:#916f6f;fill-opacity:1;stroke:none;stroke-width:1.24300003;stroke-miterlimit:4;stroke-dasharray:none;stroke-opacity:1"
         d="m -360.03711,95.060547 a 238.24548,168.05284 17.203155 0 0 -176.16211,97.894533 238.24548,168.05284 17.203155 0 0 -5.21875,18.70508 l 2.83203,0.60351 a 167.08412,128.91755 25.061068 0 1 1.99024,-6.95898 167.08412,128.91755 25.061068 0 1 121.67773,-76.24805 167.08412,128.91755 25.061068 0 1 75.03516,14.01758 167.08412,128.91755 25.061068 0 1 118.92773,136.98633 l 142.558596,30.42773 A 238.24548,168.05284 17.203155 0 0 -251.4043,113.05859 238.24548,168.05284 17.203155 0 0 -360.03711,95.060547 Z"
         id="path4368" />
      <circle
         style="fill:#916f6f;fill-opacity:1;stroke:none;stroke-width:1.29568207;stroke-miterlimit:4;stroke-dasharray:none;stroke-opacity:1"
         id="circle4370"
         cx="-161"
         cy="295.36221"
         r="84.973656" />
      <path
         style="fill:#916f6f;fill-opacity:1;stroke:none;stroke-width:1.29568207;stroke-miterlimit:4;stroke-dasharray:none;stroke-opacity:1"
         d="m -233.56008,222.43306 a 43.604315,143.95055 0.01119999 0 1 -2.05959,40.03974 l 11.14494,-0.18521 a 43.604315,143.95055 0.01119999 0 0 2.05373,-40.03965 l -11.13908,0.18512 z"
         id="path4372"
         inkscape:connector-curvature="0" />
    </g>
    <path
       style="fill:#cccccc;fill-rule:evenodd;stroke:#000000;stroke-width:1px;stroke-linecap:butt;stroke-linejoin:miter;stroke-opacity:1"
       d="m -460,372.3622 30,-20 30,-20 -20,-29 -28,-23 -42,-23 -64,-33 49,43 27,33 21,33 z"
       id="path4374"
       inkscape:connector-curvature="0"
       sodipodi:nodetypes="ccccccccccc" />
    <path
       sodipodi:nodetypes="ccccccccccc"
       inkscape:connector-curvature="0"
       id="path4376"
       d="m -384,306.3622 30,-20 30,-20 -20,-29 -28,-23 -42,-23 -64,-33 49,43 27,33 21,33 z"
       style="fill:#cccccc;fill-rule:evenodd;stroke:#000000;stroke-width:1px;stroke-linecap:butt;stroke-linejoin:miter;stroke-opacity:1" />
    <path
       sodipodi:nodetypes="ccccccccccc"
       inkscape:connector-curvature="0"
       id="path4378"
       d="m -640,218.3622 30,-20 30,-20 -20,-29 -28,-23 -42,-23 -64,-33 49,43 27,33 21,33 z"
       style="fill:#cccccc;fill-rule:evenodd;stroke:#000000;stroke-width:1px;stroke-linecap:butt;stroke-linejoin:miter;stroke-opacity:1" />
    <path
       style="fill:#cccccc;fill-rule:evenodd;stroke:#000000;stroke-width:1px;stroke-linecap:butt;stroke-linejoin:miter;stroke-opacity:1"
       d="m -542,134.3622 30,-20 30,-20 -20,-29 -28,-23 -42,-23 -64,-33 49,43 27,33 21,33 z"
       id="path4380"
       inkscape:connector-curvature="0"
       sodipodi:nodetypes="ccccccccccc" />
    <path
       sodipodi:nodetypes="ccccccccccc"
       inkscape:connector-curvature="0"
       id="path4382"
       d="m -438,96.3622 30,-20 30,-20 -20,-29 -28,-23 -42,-23 -64,-33 49,43 27,33 21,33 z"
       style="fill:#cccccc;fill-rule:evenodd;stroke:#000000;stroke-width:1px;stroke-linecap:butt;stroke-linejoin:miter;stroke-opacity:1" />
    <path
       style="fill:#cccccc;fill-rule:evenodd;stroke:#000000;stroke-width:1px;stroke-linecap:butt;stroke-linejoin:miter;stroke-opacity:1"
       d="m -570,480.3622 30,-20 30,-20 -20,-29 -28,-23 -42,-23 -64,-33 49,43 27,33 21,33 z"
       id="path4384"
       inkscape:connector-curvature="0"
       sodipodi:nodetypes="ccccccccccc" />
    <path
       sodipodi:nodetypes="ccccccccccc"
       inkscape:connector-curvature="0"
       id="path4386"
       d="m 27.384959,72.028626 2.639705,-5.102495 2.639708,-5.102492 -3.081088,-4.149327 -3.764201,-2.669749 -5.287371,-1.953369 -7.993037,-2.61133 6.673184,5.162576 3.967517,4.504617 3.314731,4.811634 z"
       style="fill:#f2f2f2;fill-opacity:1;fill-rule:evenodd;stroke:none;stroke-width:1px;stroke-linecap:butt;stroke-linejoin:miter;stroke-opacity:1" />
    <path
       style="fill:#f2f2f2;fill-opacity:1;fill-rule:evenodd;stroke:none;stroke-width:0.28757995px;stroke-linecap:butt;stroke-linejoin:miter;stroke-opacity:1"
       d="m 99.649448,232.32082 15.328522,-2.19898 15.32852,-2.19899 -6.41365,-8.80572 -10.56115,-8.05756 -16.875476,-9.29599 -25.899095,-13.6685 18.23483,14.768 9.211245,10.39548 6.505076,9.86473 z"
       id="path4388"
       inkscape:connector-curvature="0"
       sodipodi:nodetypes="ccccccccccc" />
    <path
       sodipodi:nodetypes="ccccccccccc"
       inkscape:connector-curvature="0"
       id="path4390"
       d="m 170.13699,127.63175 4.96939,-5.53798 4.96939,-5.53798 -5.48664,-4.76952 -6.77756,-3.15947 -9.57587,-2.4406 -14.48666,-3.30974 12.00196,6.07873 7.09117,5.2096 5.89191,5.51768 z"
       style="fill:#f2f2f2;fill-opacity:1;fill-rule:evenodd;stroke:none;stroke-width:0.20636806px;stroke-linecap:butt;stroke-linejoin:miter;stroke-opacity:1" />
    <path
       style="fill:#f2f2f2;fill-opacity:1;fill-rule:evenodd;stroke:none;stroke-width:0.20636806px;stroke-linecap:butt;stroke-linejoin:miter;stroke-opacity:1"
       d="m 159.09045,137.52019 6.57205,-4.91012 6.57206,-4.91014 -8.19446,-2.61011 -9.88693,-1.20808 -13.79459,-0.21384 -20.83591,-0.0413 17.54987,2.49634 10.50857,2.66892 8.83386,3.09501 z"
       id="path4392"
       inkscape:connector-curvature="0"
       sodipodi:nodetypes="ccccccccccc" />
    <path
       sodipodi:nodetypes="ccccccccccc"
       inkscape:connector-curvature="0"
       id="path4394"
       d="m 167.82045,164.9445 8.00563,-1.79193 8.00565,-1.79196 -6.40966,-5.73394 -8.52758,-5.14697 -12.50003,-5.83829 -18.9958,-8.56134 14.99298,9.45729 8.49721,6.73428 6.79475,6.43798 z"
       style="fill:#f2f2f2;fill-opacity:1;fill-rule:evenodd;stroke:none;stroke-width:0.20636806px;stroke-linecap:butt;stroke-linejoin:miter;stroke-opacity:1" />
    <path
       style="fill:#f2f2f2;fill-opacity:1;fill-rule:evenodd;stroke:none;stroke-width:0.20636806px;stroke-linecap:butt;stroke-linejoin:miter;stroke-opacity:1"
       d="m 165.69913,169.18714 8.00563,-1.79193 8.00565,-1.79196 -6.40966,-5.73394 -8.52758,-5.14697 -12.50003,-5.83829 -18.9958,-8.56134 14.99298,9.45729 8.49721,6.73428 6.79475,6.43798 z"
       id="path4396"
       inkscape:connector-curvature="0"
       sodipodi:nodetypes="ccccccccccc" />
    <path
       sodipodi:nodetypes="ccccccccccc"
       inkscape:connector-curvature="0"
       id="path4398"
       d="m 158.82312,166.49625 7.15309,-4.01678 7.1531,-4.0168 -7.78699,-3.6503 -9.64691,-2.4795 -13.65049,-2.00019 -20.65476,-2.74183 17.07822,4.75021 10.07393,4.00859 8.35814,4.21399 z"
       style="fill:#f2f2f2;fill-opacity:1;fill-rule:evenodd;stroke:none;stroke-width:0.20636806px;stroke-linecap:butt;stroke-linejoin:miter;stroke-opacity:1" />
    <path
       style="fill:#f2f2f2;fill-opacity:1;fill-rule:evenodd;stroke:none;stroke-width:0.20636806px;stroke-linecap:butt;stroke-linejoin:miter;stroke-opacity:1"
       d="m 570.07395,139.65257 -9.5157,-8.22715 -9.51571,-8.22714 10.50617,-7.08553 12.97811,-4.69367 18.33648,-3.62572 27.73999,-4.9169 -22.98212,9.03047 -13.57863,7.73931 -11.28221,8.19699 z"
       id="path4400"
       inkscape:connector-curvature="0"
       sodipodi:nodetypes="ccccccccccc" />
    <path
       sodipodi:nodetypes="ccccccccccc"
       inkscape:connector-curvature="0"
       id="path4402"
       d="m 565.71045,138.83594 -8.3845,-3.64829 -8.38452,-3.6483 13.79318,-4.96778 15.89983,-3.87839 21.62127,-3.80734 32.54992,-5.44372 -28.35765,7.26786 -17.42901,5.63149 -14.977,5.66193 z"
       style="fill:#f2f2f2;fill-opacity:1;fill-rule:evenodd;stroke:none;stroke-width:0.20636806px;stroke-linecap:butt;stroke-linejoin:miter;stroke-opacity:1" />
    <path
       style="fill:#f2f2f2;fill-opacity:1;fill-rule:evenodd;stroke:none;stroke-width:0.20636806px;stroke-linecap:butt;stroke-linejoin:miter;stroke-opacity:1"
       d="m 578.58018,147.86345 -6.53965,-4.9532 -6.53965,-4.95322 8.21144,-2.5562 9.89465,-1.14309 13.7957,-0.1232 20.83573,0.0956 -17.56591,2.38097 -10.52586,2.59981 -8.85401,3.03689 z"
       id="path4404"
       inkscape:connector-curvature="0"
       sodipodi:nodetypes="ccccccccccc" />
    <path
       style="fill:#f2f2f2;fill-opacity:1;fill-rule:evenodd;stroke:none;stroke-width:0.20636806px;stroke-linecap:butt;stroke-linejoin:miter;stroke-opacity:1"
       d="m 573.79453,170.29221 -4.29964,-6.98673 -4.29963,-6.98675 8.57958,0.59392 9.63614,2.52103 12.90226,4.88553 19.38424,7.64119 -17.23443,-4.14784 -10.75243,-1.39215 -9.35268,-0.37882 z"
       id="path4406"
       inkscape:connector-curvature="0"
       sodipodi:nodetypes="ccccccccccc" />
    <path
       sodipodi:nodetypes="ccccccccccc"
       inkscape:connector-curvature="0"
       id="path4408"
       d="m 573.79453,175.24196 -4.29964,-6.98673 -4.29963,-6.98675 8.57958,0.59392 9.63614,2.52103 12.90226,4.88553 19.38424,7.64119 -17.23443,-4.14784 -10.75243,-1.39215 -9.35268,-0.37882 z"
       style="fill:#f2f2f2;fill-opacity:1;fill-rule:evenodd;stroke:none;stroke-width:0.20636806px;stroke-linecap:butt;stroke-linejoin:miter;stroke-opacity:1" />
    <path
       style="fill:#f2f2f2;fill-opacity:1;fill-rule:evenodd;stroke:none;stroke-width:0.20636806px;stroke-linecap:butt;stroke-linejoin:miter;stroke-opacity:1"
       d="m 214.68472,97.933265 4.96939,-5.53798 4.96939,-5.53798 -5.48664,-4.76952 -6.77756,-3.15947 -9.57587,-2.4406 -14.48666,-3.30974 12.00196,6.07873 7.09117,5.2096 5.89191,5.51768 z"
       id="path4429"
       inkscape:connector-curvature="0"
       sodipodi:nodetypes="ccccccccccc" />
    <path
       sodipodi:nodetypes="ccccccccccc"
       inkscape:connector-curvature="0"
       id="path4431"
       d="m 224.58421,95.104838 4.96939,-5.53798 4.96939,-5.53798 -5.48664,-4.76952 -6.77756,-3.15947 -9.57587,-2.4406 -14.48666,-3.30974 12.00196,6.07873 7.09117,5.2096 5.89191,5.51768 z"
       style="fill:#f2f2f2;fill-opacity:1;fill-rule:evenodd;stroke:none;stroke-width:0.20636806px;stroke-linecap:butt;stroke-linejoin:miter;stroke-opacity:1" />
    <path
       style="fill:#f2f2f2;fill-opacity:1;fill-rule:evenodd;stroke:none;stroke-width:0.20636806px;stroke-linecap:butt;stroke-linejoin:miter;stroke-opacity:1"
       d="m 492.67914,151.67338 -9.70918,-15.34552 -9.70916,-15.34552 10.71977,-13.21615 13.24196,-8.754763 18.70927,-6.762798 28.30396,-9.171153 -23.44936,16.843904 -13.85469,14.4356 -11.51158,15.28926 z"
       id="path4433"
       inkscape:connector-curvature="0"
       sodipodi:nodetypes="ccccccccccc" />
    <path
       sodipodi:nodetypes="ccccccccccc"
       inkscape:connector-curvature="0"
       id="path4435"
       d="m 520.57638,147.56862 -14.18302,-14.74037 -14.18301,-14.74038 0.62771,-12.75707 4.54885,-8.470641 9.22137,-6.57091 14.47859,-8.92048 -7.38707,16.29066 -2.12984,13.941161 -0.12736,14.75527 z"
       style="fill:#f2f2f2;fill-opacity:1;fill-rule:evenodd;stroke:none;stroke-width:0.20636806px;stroke-linecap:butt;stroke-linejoin:miter;stroke-opacity:1"
       inkscape:transform-center-x="-32.526912"
       inkscape:transform-center-y="-6.363961" />
    <path
       style="fill:#f2f2f2;fill-opacity:1;fill-rule:evenodd;stroke:none;stroke-width:1px;stroke-linecap:butt;stroke-linejoin:miter;stroke-opacity:1"
       d="m 25.970745,64.957558 2.639705,-5.102495 2.639708,-5.102492 -3.081088,-4.149327 -3.764201,-2.669749 -5.287371,-1.953369 -7.993037,-2.61133 6.673184,5.162576 3.967517,4.504617 3.314731,4.811634 z"
       id="path4437"
       inkscape:connector-curvature="0"
       sodipodi:nodetypes="ccccccccccc" />
    <path
       sodipodi:nodetypes="ccccccccccc"
       inkscape:connector-curvature="0"
       id="path4439"
       d="m 52.27834,67.460223 7.246113,-0.336787 7.246122,-0.336781 -7.970239,-5.549712 -9.853093,-5.368972 -13.926787,-6.484865 -21.069916,-9.602405 17.446859,9.770796 10.303725,6.653257 8.557861,6.175016 z"
       style="fill:#f2f2f2;fill-opacity:1;fill-rule:evenodd;stroke:none;stroke-width:1px;stroke-linecap:butt;stroke-linejoin:miter;stroke-opacity:1" />
    <path
       style="fill:#f2f2f2;fill-opacity:1;fill-rule:evenodd;stroke:none;stroke-width:1px;stroke-linecap:butt;stroke-linejoin:miter;stroke-opacity:1"
       d="m 52.27834,67.460223 7.246113,-0.336787 7.246122,-0.336781 -7.970239,-5.549712 -9.853093,-5.368972 -13.926787,-6.484865 -21.069916,-9.602405 17.446859,9.770796 10.303725,6.653257 8.557861,6.175016 z"
       id="path4441"
       inkscape:connector-curvature="0"
       sodipodi:nodetypes="ccccccccccc"
       inkscape:transform-center-x="-0.70710678" />
    <path
       inkscape:transform-center-x="-0.70710678"
       sodipodi:nodetypes="ccccccccccc"
       inkscape:connector-curvature="0"
       id="path4443"
       d="m 60.763621,66.046009 7.246113,-0.336787 7.246122,-0.336781 -7.970239,-5.549712 -9.853093,-5.368972 -13.926787,-6.484865 -21.069916,-9.602405 17.446859,9.770796 10.303725,6.653257 8.557861,6.175016 z"
       style="fill:#f2f2f2;fill-opacity:1;fill-rule:evenodd;stroke:none;stroke-width:1px;stroke-linecap:butt;stroke-linejoin:miter;stroke-opacity:1" />
    <path
       sodipodi:nodetypes="ccccccccccc"
       inkscape:connector-curvature="0"
       id="path4445"
       d="m 28.029375,69.510265 0.850595,-5.598548 0.850594,-5.598558 -3.105381,-2.196006 -3.292236,-0.609704 -4.248811,0.695914 -6.351597,1.347181 5.926302,1.452094 3.823511,2.103359 3.41355,2.66292 z"
       style="fill:#f2f2f2;fill-opacity:1;fill-rule:evenodd;stroke:none;stroke-width:1px;stroke-linecap:butt;stroke-linejoin:miter;stroke-opacity:1" />
    <path
       style="fill:#f2f2f2;fill-opacity:1;fill-rule:evenodd;stroke:none;stroke-width:1px;stroke-linecap:butt;stroke-linejoin:miter;stroke-opacity:1"
       d="m 33.973053,80.404934 -0.01865,-5.662765 -0.01865,-5.662774 -3.4056,-1.693434 -3.346805,-0.09725 -4.091685,1.339704 -6.069617,2.305954 6.078944,0.525429 4.101006,1.491678 3.781773,2.107524 z"
       id="path4447"
       inkscape:connector-curvature="0"
       sodipodi:nodetypes="ccccccccccc" />
    <path
       style="fill:#f2f2f2;fill-opacity:1;fill-rule:evenodd;stroke:none;stroke-width:1px;stroke-linecap:butt;stroke-linejoin:miter;stroke-opacity:1"
       d="m 692.48067,100.00625 -2.23057,-14.681491 -2.23059,-14.681514 8.14349,-5.758749 8.63346,-1.598872 11.14197,1.824947 16.65627,3.532813 -15.54097,3.807933 -10.02668,5.515795 -8.9516,6.983172 z"
       id="path4449"
       inkscape:connector-curvature="0"
       sodipodi:nodetypes="ccccccccccc" />
    <path
       sodipodi:nodetypes="ccccccccccc"
       inkscape:connector-curvature="0"
       id="path4451"
       d="m 702.73968,94.192973 1.14265,-7.59098 1.14265,-7.590977 7.08285,-1.258089 6.65458,0.865669 7.85087,3.015047 11.58381,4.89997 -12.15512,-1.10449 -8.42221,0.78047 -7.90951,1.70161 z"
       style="fill:#f2f2f2;fill-opacity:1;fill-rule:evenodd;stroke:none;stroke-width:0.20636806px;stroke-linecap:butt;stroke-linejoin:miter;stroke-opacity:1"
       inkscape:transform-center-x="-10.606602"
       inkscape:transform-center-y="24.041631" />
    <path
       style="fill:#f2f2f2;fill-opacity:1;fill-rule:evenodd;stroke:none;stroke-width:0.20636806px;stroke-linecap:butt;stroke-linejoin:miter;stroke-opacity:1"
       d="m 695.0425,108.47674 -7.20986,-3.91397 -7.20987,-3.91399 7.73394,-3.761399 9.61043,-2.61734 13.62046,-2.1954 20.61339,-3.03721 -17.00848,4.99419 -10.01551,4.15239 -8.29695,4.333209 z"
       id="path4453"
       inkscape:connector-curvature="0"
       sodipodi:nodetypes="ccccccccccc"
       inkscape:transform-center-x="-1.4142136"
       inkscape:transform-center-y="11.313709" />
    <path
       inkscape:transform-center-y="8.8166185"
       inkscape:transform-center-x="-3.2081486"
       sodipodi:nodetypes="ccccccccccc"
       inkscape:connector-curvature="0"
       id="path4455"
       d="m 693.5087,120.18997 -7.95617,-2.00017 -7.95617,-2.0002 6.55707,-5.56477 8.65895,-4.92275 12.64809,-5.51022 19.21268,-8.062845 -15.23462,9.062935 -8.66999,6.51031 -6.96038,6.25852 z"
       style="fill:#f2f2f2;fill-opacity:1;fill-rule:evenodd;stroke:none;stroke-width:0.20636806px;stroke-linecap:butt;stroke-linejoin:miter;stroke-opacity:1" />
    <path
       sodipodi:nodetypes="ccccccccccc"
       inkscape:connector-curvature="0"
       id="path4457"
       d="m 106.01341,245.75585 15.32852,-2.19898 15.32852,-2.19899 -6.41365,-8.80572 -10.56115,-8.05756 -16.87547,-9.29599 -25.8991,-13.6685 18.23483,14.768 9.21125,10.39548 6.50507,9.86473 z"
       style="fill:#f2f2f2;fill-opacity:1;fill-rule:evenodd;stroke:none;stroke-width:0.28757995px;stroke-linecap:butt;stroke-linejoin:miter;stroke-opacity:1" />
    <path
       style="fill:#f2f2f2;fill-opacity:1;fill-rule:evenodd;stroke:none;stroke-width:0.28757995px;stroke-linecap:butt;stroke-linejoin:miter;stroke-opacity:1"
       d="m 99.586418,231.42302 1.352332,-3.57131 1.35234,-3.57131 -7.618432,-0.84677 -7.873267,0.15641 -9.98524,1.11141 -5.135204,0.85577 2.541528,0.28662 8.137944,-0.0742 7.393625,-0.14428 z"
       id="path4459"
       inkscape:connector-curvature="0"
       sodipodi:nodetypes="ccccccccccc" />
    <path
       style="fill:#f2f2f2;fill-opacity:1;fill-rule:evenodd;stroke:none;stroke-width:1px;stroke-linecap:butt;stroke-linejoin:miter;stroke-opacity:1"
       d="m 114.01275,259.01488 1.34597,-12.38363 1.34598,-12.38368 -4.91393,-4.85744 -5.2096,-1.34862 -6.723282,1.5393 -10.05071,2.97989 9.377727,3.21196 6.050285,4.65249 5.40157,5.89023 z"
       id="path4461"
       inkscape:connector-curvature="0"
       sodipodi:nodetypes="ccccccccccc" />
    <path
       sodipodi:nodetypes="ccccccccccc"
       inkscape:connector-curvature="0"
       id="path4463"
       d="m -1.2456536,234.97325 1.34597296,-12.38363 1.34597274,-12.38368 -4.9139267,-4.85744 -5.209604,-1.34862 -6.7232804,1.5393 -10.05071,2.97989 9.377727,3.21196 6.05029,4.65249 5.4015704,5.89023 z"
       style="fill:#f2f2f2;fill-opacity:1;fill-rule:evenodd;stroke:none;stroke-width:1px;stroke-linecap:butt;stroke-linejoin:miter;stroke-opacity:1" />
    <path
       sodipodi:nodetypes="ccccccccccc"
       inkscape:connector-curvature="0"
       id="path4465"
       d="m 93.345959,256.43212 3.378015,-6.19189 3.378026,-6.19191 -1.523642,-3.60356 -2.435923,-1.83064 -3.851746,-0.64568 -5.904557,-0.60991 4.215543,3.70588 2.162741,3.7416 1.555946,4.24947 z"
       style="fill:#f2f2f2;fill-opacity:1;fill-rule:evenodd;stroke:none;stroke-width:1px;stroke-linecap:butt;stroke-linejoin:miter;stroke-opacity:1"
       inkscape:transform-center-x="14.849242"
       inkscape:transform-center-y="5.6568543" />
    <path
       inkscape:transform-center-y="11.995454"
       inkscape:transform-center-x="13.156141"
       style="fill:#f2f2f2;fill-opacity:1;fill-rule:evenodd;stroke:none;stroke-width:1px;stroke-linecap:butt;stroke-linejoin:miter;stroke-opacity:1"
       d="m 87.06878,293.51384 -0.06953,-7.05306 -0.06953,-7.05308 -3.0872,-2.4034 -3.019321,-0.41069 -3.677742,1.31418 -5.452601,2.34626 5.48737,1.18029 3.712496,2.21233 3.430317,2.95159 z"
       id="path4467"
       inkscape:connector-curvature="0"
       sodipodi:nodetypes="ccccccccccc" />
    <path
       sodipodi:nodetypes="ccccccccccc"
       inkscape:connector-curvature="0"
       id="path4469"
       d="m 84.94746,305.53466 -0.06953,-7.05306 -0.06953,-7.05308 -3.0872,-2.4034 -3.019321,-0.41069 -3.677742,1.31418 -5.452601,2.34626 5.48737,1.18029 3.712496,2.21233 3.430317,2.95159 z"
       style="fill:#f2f2f2;fill-opacity:1;fill-rule:evenodd;stroke:none;stroke-width:1px;stroke-linecap:butt;stroke-linejoin:miter;stroke-opacity:1"
       inkscape:transform-center-x="13.156141"
       inkscape:transform-center-y="11.995454" />
    <path
       inkscape:transform-center-y="12.855746"
       inkscape:transform-center-x="12.111368"
       style="fill:#f2f2f2;fill-opacity:1;fill-rule:evenodd;stroke:none;stroke-width:1px;stroke-linecap:butt;stroke-linejoin:miter;stroke-opacity:1"
       d="m 91.011442,385.73299 -1.618985,-6.25805 -1.61899,-6.25808 -4.07441,-1.26886 -3.56153,0.48564 -3.942269,2.20649 -5.757969,3.62546 6.567472,-0.49641 4.751744,0.92252 4.588578,1.66005 z"
       id="path4471"
       inkscape:connector-curvature="0"
       sodipodi:nodetypes="ccccccccccc" />
    <path
       sodipodi:nodetypes="ccccccccccc"
       inkscape:connector-curvature="0"
       id="path4473"
       d="m 122.0167,447.365 -3.68927,-5.30788 -3.6893,-5.3079 -4.26157,0.22328 -3.17192,1.69093 -2.93209,3.43699 -4.14283,5.3977 5.98749,-2.74374 4.7767,-0.78307 4.87951,-0.0347 z"
       style="fill:#f2f2f2;fill-opacity:1;fill-rule:evenodd;stroke:none;stroke-width:1px;stroke-linecap:butt;stroke-linejoin:miter;stroke-opacity:1"
       inkscape:transform-center-x="5.8041545"
       inkscape:transform-center-y="13.913521" />
    <path
       inkscape:transform-center-y="13.913521"
       inkscape:transform-center-x="5.8041545"
       style="fill:#f2f2f2;fill-opacity:1;fill-rule:evenodd;stroke:none;stroke-width:1px;stroke-linecap:butt;stroke-linejoin:miter;stroke-opacity:1"
       d="m 119.89538,460.80003 -3.68927,-5.30788 -3.6893,-5.3079 -4.26157,0.22328 -3.17192,1.69093 -2.93209,3.43699 -4.14283,5.3977 5.98749,-2.74374 4.7767,-0.78307 4.87951,-0.0347 z"
       id="path4475"
       inkscape:connector-curvature="0"
       sodipodi:nodetypes="ccccccccccc" />
    <path
       sodipodi:nodetypes="ccccccccccc"
       inkscape:connector-curvature="0"
       id="path4477"
       d="m 137.57305,474.23506 -3.68927,-5.30788 -3.6893,-5.3079 -4.26157,0.22328 -3.17192,1.69093 -2.93209,3.43699 -4.14283,5.3977 5.98749,-2.74374 4.7767,-0.78307 4.87951,-0.0347 z"
       style="fill:#f2f2f2;fill-opacity:1;fill-rule:evenodd;stroke:none;stroke-width:1px;stroke-linecap:butt;stroke-linejoin:miter;stroke-opacity:1"
       inkscape:transform-center-x="5.8041545"
       inkscape:transform-center-y="13.913521" />
    <path
       sodipodi:nodetypes="ccccccccccc"
       inkscape:connector-curvature="0"
       id="path4479"
       d="m 138.68758,492.21085 -0.0695,-7.05306 -0.0695,-7.05308 -3.0872,-2.4034 -3.01933,-0.41069 -3.67774,1.31418 -5.4526,2.34626 5.48737,1.18029 3.7125,2.21233 3.43031,2.95159 z"
       style="fill:#f2f2f2;fill-opacity:1;fill-rule:evenodd;stroke:none;stroke-width:1px;stroke-linecap:butt;stroke-linejoin:miter;stroke-opacity:1"
       inkscape:transform-center-x="13.156141"
       inkscape:transform-center-y="11.995454" />
    <path
       inkscape:transform-center-y="14.233524"
       inkscape:transform-center-x="-0.873659"
       style="fill:#f2f2f2;fill-opacity:1;fill-rule:evenodd;stroke:none;stroke-width:1px;stroke-linecap:butt;stroke-linejoin:miter;stroke-opacity:1"
       d="m 160.79261,510.36585 -5.13892,-4.83135 -5.13893,-4.83138 -3.87144,0.56488 -2.38615,1.89507 -1.59686,3.56412 -2.08031,5.5595 4.6498,-3.14383 4.16631,-1.14845 4.50459,-0.43312 z"
       id="path4481"
       inkscape:connector-curvature="0"
       sodipodi:nodetypes="ccccccccccc" />
    <path
       sodipodi:nodetypes="ccccccccccc"
       inkscape:connector-curvature="0"
       id="path4483"
       d="m 164.91535,505.64351 -6.7595,-2.01483 -6.75953,-2.01485 -3.20736,2.24053 -1.28336,2.7637 0.17042,3.90178 0.63282,5.90214 2.74696,-4.89475 3.20932,-2.89436 3.83239,-2.4066 z"
       style="fill:#f2f2f2;fill-opacity:1;fill-rule:evenodd;stroke:none;stroke-width:1px;stroke-linecap:butt;stroke-linejoin:miter;stroke-opacity:1"
       inkscape:transform-center-x="-8.926259"
       inkscape:transform-center-y="14.635204" />
    <path
       inkscape:transform-center-y="14.819404"
       inkscape:transform-center-x="-4.981019"
       style="fill:#f2f2f2;fill-opacity:1;fill-rule:evenodd;stroke:none;stroke-width:1px;stroke-linecap:butt;stroke-linejoin:miter;stroke-opacity:1"
       d="m 208.29288,542.9142 -6.06312,-3.60401 -6.06316,-3.60404 -3.65728,1.38976 -1.91921,2.36678 -0.78724,3.82533 -0.82718,5.87806 3.85877,-4.07606 3.8188,-2.02333 4.30395,-1.39822 z"
       id="path4485"
       inkscape:connector-curvature="0"
       sodipodi:nodetypes="ccccccccccc" />
    <path
       style="fill:#f2f2f2;fill-opacity:1;fill-rule:evenodd;stroke:none;stroke-width:1px;stroke-linecap:butt;stroke-linejoin:miter;stroke-opacity:1"
       d="m 91.385334,278.10676 1.345973,-12.38363 1.345973,-12.38368 -4.913927,-4.85744 -5.209604,-1.34862 -6.723279,1.5393 -10.05071,2.97989 9.377727,3.21196 6.050289,4.65249 5.40157,5.89023 z"
       id="path4487"
       inkscape:connector-curvature="0"
       sodipodi:nodetypes="ccccccccccc" />
    <path
       style="fill:#f2f2f2;fill-opacity:1;fill-rule:evenodd;stroke:none;stroke-width:1px;stroke-linecap:butt;stroke-linejoin:miter;stroke-opacity:1"
       d="m 97.473104,411.76319 -1.797926,-5.28209 -1.797936,-5.28211 -2.914432,-1.04169 -2.370211,0.43874 -2.437995,1.89768 -3.516088,3.11242 4.415059,-0.47136 3.336956,0.74336 3.30791,1.36864 z"
       id="path4489"
       inkscape:connector-curvature="0"
       sodipodi:nodetypes="ccccccccccc" />
    <path
       style="fill:#f2f2f2;fill-opacity:1;fill-rule:evenodd;stroke:none;stroke-width:0.28757995px;stroke-linecap:butt;stroke-linejoin:miter;stroke-opacity:1"
       d="m 101.06366,341.21527 15.32852,-2.19898 15.32852,-2.19899 -6.41365,-8.80572 -10.56115,-8.05756 -16.875467,-9.29599 -25.8991,-13.6685 18.23483,14.768 9.21125,10.39548 6.505067,9.86473 z"
       id="path4491"
       inkscape:connector-curvature="0"
       sodipodi:nodetypes="ccccccccccc" />
    <path
       sodipodi:nodetypes="ccccccccccc"
       inkscape:connector-curvature="0"
       id="path4493"
       d="m 111.39668,382.3586 7.33165,-13.63987 7.33165,-13.63987 -10.89363,-0.0675 -12.75413,3.71408 -17.499672,8.05966 -26.375713,12.72451 22.709889,-5.90456 13.833875,-1.23976 11.800041,0.62267 z"
       style="fill:#f2f2f2;fill-opacity:1;fill-rule:evenodd;stroke:none;stroke-width:0.28757995px;stroke-linecap:butt;stroke-linejoin:miter;stroke-opacity:1" />
    <path
       style="fill:#f2f2f2;fill-opacity:1;fill-rule:evenodd;stroke:none;stroke-width:0.28757995px;stroke-linecap:butt;stroke-linejoin:miter;stroke-opacity:1"
       d="m 123.56268,414.47691 9.60234,-12.14884 9.60233,-12.14884 -10.71422,-1.97006 -13.20691,1.42821 -18.6388,4.87768 -28.193426,7.91971 23.392261,-1.84527 13.837665,1.19671 11.50967,2.67508 z"
       id="path4495"
       inkscape:connector-curvature="0"
       sodipodi:nodetypes="ccccccccccc" />
    <path
       sodipodi:nodetypes="ccccccccccc"
       inkscape:connector-curvature="0"
       id="path4497"
       d="m 185.33386,495.18384 1.74682,-15.38661 1.74682,-15.38661 -10.14091,3.97964 -10.46536,8.18161 -13.25955,13.97787 -19.77087,21.60332 18.89748,-13.91 12.38615,-6.28461 11.18861,-3.80045 z"
       style="fill:#f2f2f2;fill-opacity:1;fill-rule:evenodd;stroke:none;stroke-width:0.28757995px;stroke-linecap:butt;stroke-linejoin:miter;stroke-opacity:1" />
    <path
       style="fill:#f2f2f2;fill-opacity:1;fill-rule:evenodd;stroke:none;stroke-width:0.28757995px;stroke-linecap:butt;stroke-linejoin:miter;stroke-opacity:1"
       d="m 185.33386,495.18384 1.74682,-15.38661 1.74682,-15.38661 -10.14091,3.97964 -10.46536,8.18161 -13.25955,13.97787 -19.77087,21.60332 18.89748,-13.91 12.38615,-6.28461 11.18861,-3.80045 z"
       id="path4499"
       inkscape:connector-curvature="0"
       sodipodi:nodetypes="ccccccccccc" />
    <path
       sodipodi:nodetypes="ccccccccccc"
       inkscape:connector-curvature="0"
       id="path4501"
       d="m 183.21254,480.3346 1.74682,-15.38661 1.74682,-15.38661 -10.14091,3.97964 -10.46536,8.18161 -13.25955,13.97787 -19.77087,21.60332 18.89748,-13.91 12.38615,-6.28461 11.18861,-3.80045 z"
       style="fill:#f2f2f2;fill-opacity:1;fill-rule:evenodd;stroke:none;stroke-width:0.28757995px;stroke-linecap:butt;stroke-linejoin:miter;stroke-opacity:1" />
    <path
       style="fill:#f2f2f2;fill-opacity:1;fill-rule:evenodd;stroke:none;stroke-width:0.28757995px;stroke-linecap:butt;stroke-linejoin:miter;stroke-opacity:1"
       d="m 182.50543,477.50617 1.74682,-15.38661 1.74682,-15.38661 -10.14091,3.97964 -10.46536,8.18161 -13.25955,13.97787 -19.77087,21.60332 18.89748,-13.91 12.38615,-6.28461 11.18861,-3.80045 z"
       id="path4503"
       inkscape:connector-curvature="0"
       sodipodi:nodetypes="ccccccccccc" />
    <path
       sodipodi:nodetypes="ccccccccccc"
       inkscape:connector-curvature="0"
       id="path4505"
       d="m 182.50543,477.50617 1.74682,-15.38661 1.74682,-15.38661 -10.14091,3.97964 -10.46536,8.18161 -13.25955,13.97787 -19.77087,21.60332 18.89748,-13.91 12.38615,-6.28461 11.18861,-3.80045 z"
       style="fill:#f2f2f2;fill-opacity:1;fill-rule:evenodd;stroke:none;stroke-width:0.28757995px;stroke-linecap:butt;stroke-linejoin:miter;stroke-opacity:1" />
    <path
       style="fill:#f2f2f2;fill-opacity:1;fill-rule:evenodd;stroke:none;stroke-width:1px;stroke-linecap:butt;stroke-linejoin:miter;stroke-opacity:1"
       d="m 96.653225,279.88313 6.801175,-10.436 6.80119,-10.43604 -2.18577,-6.55467 -4.03642,-3.55895 -6.692555,-1.66786 -10.311754,-1.8879 6.911154,7.10593 3.29198,6.88583 2.15359,7.69635 z"
       id="path4507"
       inkscape:connector-curvature="0"
       sodipodi:nodetypes="ccccccccccc" />
    <path
       sodipodi:nodetypes="ccccccccccc"
       inkscape:connector-curvature="0"
       id="path4509"
       d="m 104.57397,297.81868 -0.23312,-12.45439 -0.23314,-12.45443 -5.489506,-4.19602 -5.338455,-0.67802 -6.474221,2.37834 -9.592409,4.22873 9.70898,1.9985 6.590779,3.84882 6.104015,5.15876 z"
       style="fill:#f2f2f2;fill-opacity:1;fill-rule:evenodd;stroke:none;stroke-width:1px;stroke-linecap:butt;stroke-linejoin:miter;stroke-opacity:1"
       inkscape:transform-center-x="6.363961"
       inkscape:transform-center-y="6.363961" />
    <path
       inkscape:transform-center-y="26.761601"
       inkscape:transform-center-x="10.640144"
       style="fill:#f2f2f2;fill-opacity:1;fill-rule:evenodd;stroke:none;stroke-width:1px;stroke-linecap:butt;stroke-linejoin:miter;stroke-opacity:1"
       d="m 121.54453,347.31615 1.02445,-29.03843 -0.38979,-12.06803 -0.69283,-14.81658 -19.53216,-0.0228 c -9.897484,8.33599 -16.101074,12.54717 -24.741081,22.12707 l 16.232805,8.40405 15.969116,11.94234 c 5.08479,6.91788 6.20832,7.28868 12.12949,13.47236 z"
       id="path4511"
       inkscape:connector-curvature="0"
       sodipodi:nodetypes="ccccccccc" />
    <path
       sodipodi:nodetypes="ccccccccc"
       inkscape:connector-curvature="0"
       id="path4513"
       d="m 122.95874,354.38722 1.02445,-29.03843 -0.38979,-12.06803 -0.69283,-14.81658 -19.53216,-0.0228 c -9.89748,8.33599 -16.10107,12.54717 -24.741077,22.12707 l 16.232805,8.40405 15.969112,11.94234 c 5.08479,6.91788 6.20832,7.28868 12.12949,13.47236 z"
       style="fill:#f2f2f2;fill-opacity:1;fill-rule:evenodd;stroke:none;stroke-width:1px;stroke-linecap:butt;stroke-linejoin:miter;stroke-opacity:1"
       inkscape:transform-center-x="10.640144"
       inkscape:transform-center-y="26.761601" />
    <path
       inkscape:transform-center-y="26.761601"
       inkscape:transform-center-x="10.640144"
       style="fill:#f2f2f2;fill-opacity:1;fill-rule:evenodd;stroke:none;stroke-width:1px;stroke-linecap:butt;stroke-linejoin:miter;stroke-opacity:1"
       d="m 122.95874,360.75118 1.02445,-29.03843 -0.38979,-12.06803 -0.69283,-14.81658 -19.53216,-0.0228 c -9.89748,8.33599 -16.10107,12.54717 -24.741077,22.12707 l 16.232805,8.40405 15.969112,11.94234 c 5.08479,6.91788 6.20832,7.28868 12.12949,13.47236 z"
       id="path4515"
       inkscape:connector-curvature="0"
       sodipodi:nodetypes="ccccccccc" />
    <path
       sodipodi:nodetypes="ccccccccc"
       inkscape:connector-curvature="0"
       id="path4517"
       d="m -5.0275875,320.44609 1.02445,-29.03843 -0.38979,-12.06803 -0.69283,-14.81658 -19.5321595,-0.0228 c -9.89748,8.33599 -16.10107,12.54717 -24.741077,22.12707 l 16.232805,8.40405 15.969112,11.94234 c 5.08479,6.91788 6.20832,7.28868 12.1294895,13.47236 z"
       style="fill:#f2f2f2;fill-opacity:1;fill-rule:evenodd;stroke:none;stroke-width:1px;stroke-linecap:butt;stroke-linejoin:miter;stroke-opacity:1"
       inkscape:transform-center-x="10.640144"
       inkscape:transform-center-y="26.761601" />
    <path
       inkscape:transform-center-y="9.849817"
       inkscape:transform-center-x="3.9160357"
       style="fill:#f2f2f2;fill-opacity:1;fill-rule:evenodd;stroke:none;stroke-width:1px;stroke-linecap:butt;stroke-linejoin:miter;stroke-opacity:1"
       d="m 89.286363,353.68011 0.377042,-10.6874 -0.143459,-4.44156 -0.254992,-5.45315 -7.188683,-0.008 c -3.642703,3.06801 -5.925894,4.6179 -9.105792,8.14372 l 5.974378,3.09306 5.877327,4.3953 c 1.871424,2.54608 2.284932,2.68255 4.464179,4.95841 z"
       id="path4519"
       inkscape:connector-curvature="0"
       sodipodi:nodetypes="ccccccccc" />
    <path
       sodipodi:nodetypes="ccccccccc"
       inkscape:connector-curvature="0"
       id="path4521"
       d="m 95.692716,393.62274 -4.410291,-9.74228 -2.101772,-3.91543 -2.651111,-4.77215 -6.443848,3.18654 c -1.900452,4.36695 -3.257379,6.76984 -4.539816,11.34133 l 6.726556,0.11682 7.218155,1.3266 c 2.807741,1.4496 3.238829,1.38816 6.202296,2.45891 z"
       style="fill:#f2f2f2;fill-opacity:1;fill-rule:evenodd;stroke:none;stroke-width:1px;stroke-linecap:butt;stroke-linejoin:miter;stroke-opacity:1"
       inkscape:transform-center-x="-2.5077248"
       inkscape:transform-center-y="7.031932" />
    <path
       inkscape:transform-center-y="7.031932"
       inkscape:transform-center-x="-2.5077248"
       style="fill:#f2f2f2;fill-opacity:1;fill-rule:evenodd;stroke:none;stroke-width:1px;stroke-linecap:butt;stroke-linejoin:miter;stroke-opacity:1"
       d="m 102.05668,401.40091 -4.410294,-9.74228 -2.101772,-3.91543 -2.651111,-4.77215 -6.443848,3.18654 c -1.900452,4.36695 -3.257379,6.76984 -4.539816,11.34133 l 6.726556,0.11682 7.218155,1.3266 c 2.807741,1.4496 3.238829,1.38816 6.2023,2.45891 z"
       id="path4523"
       inkscape:connector-curvature="0"
       sodipodi:nodetypes="ccccccccc" />
    <path
       style="fill:#f2f2f2;fill-opacity:1;fill-rule:evenodd;stroke:none;stroke-width:1px;stroke-linecap:butt;stroke-linejoin:miter;stroke-opacity:1"
       d="m 101.36012,367.13822 -5.528679,-11.16243 -5.528704,-11.16246 -6.755583,-1.45034 -5.116844,1.66633 -4.838831,4.91504 -6.8684,7.9197 9.632761,-2.33846 7.603152,0.66615 7.722327,2.0585 z"
       id="path4525"
       inkscape:connector-curvature="0"
       sodipodi:nodetypes="ccccccccccc" />
    <path
       sodipodi:nodetypes="ccccccccccc"
       inkscape:connector-curvature="0"
       id="path4527"
       d="m 107.01697,373.50218 -5.52867,-11.16243 -5.528709,-11.16246 -6.755583,-1.45034 -5.116844,1.66633 -4.838831,4.91504 -6.8684,7.9197 9.632761,-2.33846 7.603152,0.66615 7.722327,2.0585 z"
       style="fill:#f2f2f2;fill-opacity:1;fill-rule:evenodd;stroke:none;stroke-width:1px;stroke-linecap:butt;stroke-linejoin:miter;stroke-opacity:1" />
    <path
       style="fill:#f2f2f2;fill-opacity:1;fill-rule:evenodd;stroke:none;stroke-width:1px;stroke-linecap:butt;stroke-linejoin:miter;stroke-opacity:1"
       d="m 103.02899,386.43355 -2.7489,-12.14947 -2.748923,-12.14951 -6.225129,-2.99819 -5.365197,0.41643 -5.858886,3.63941 -8.538069,6.0826 9.912538,-0.008 7.233329,2.43529 7.021762,3.81662 z"
       id="path4529"
       inkscape:connector-curvature="0"
       sodipodi:nodetypes="ccccccccccc" />
    <path
       style="fill:#f2f2f2;fill-opacity:1;fill-rule:evenodd;stroke:none;stroke-width:0.28757995px;stroke-linecap:butt;stroke-linejoin:miter;stroke-opacity:1"
       d="m 126.95303,435.39161 7.33165,-13.63987 7.33165,-13.63987 -10.89363,-0.0675 -12.75413,3.71408 -17.49967,8.05966 -26.375716,12.72451 22.709889,-5.90456 13.833877,-1.23976 11.80004,0.62267 z"
       id="path4531"
       inkscape:connector-curvature="0"
       sodipodi:nodetypes="ccccccccccc" />
    <path
       sodipodi:nodetypes="ccccccccccc"
       inkscape:connector-curvature="0"
       id="path4533"
       d="m 126.95303,435.39161 7.33165,-13.63987 7.33165,-13.63987 -10.89363,-0.0675 -12.75413,3.71408 -17.49967,8.05966 -26.375716,12.72451 22.709889,-5.90456 13.833877,-1.23976 11.80004,0.62267 z"
       style="fill:#f2f2f2;fill-opacity:1;fill-rule:evenodd;stroke:none;stroke-width:0.28757995px;stroke-linecap:butt;stroke-linejoin:miter;stroke-opacity:1" />
    <path
       style="fill:#f2f2f2;fill-opacity:1;fill-rule:evenodd;stroke:none;stroke-width:0.28757995px;stroke-linecap:butt;stroke-linejoin:miter;stroke-opacity:1"
       d="m 143.82598,429.9467 -6.22777,-14.17795 -6.22777,-14.17794 -6.76407,8.53951 -4.93139,12.33465 -4.43174,18.74983 -6.22514,28.61536 9.33904,-21.52638 7.54562,-11.6609 7.75976,-8.9115 z"
       id="path4535"
       inkscape:connector-curvature="0"
       sodipodi:nodetypes="ccccccccccc" />
    <path
       sodipodi:nodetypes="ccccccccccc"
       inkscape:connector-curvature="0"
       id="path4537"
       d="m 141.22511,430.80419 4.60475,-14.78498 4.60474,-14.78497 -10.70777,2.0048 -11.8154,6.07113 -15.64821,11.23967 -23.475496,17.50692 21.173126,-10.11442 13.34586,-3.84722 11.7032,-1.63209 z"
       style="fill:#f2f2f2;fill-opacity:1;fill-rule:evenodd;stroke:none;stroke-width:0.28757995px;stroke-linecap:butt;stroke-linejoin:miter;stroke-opacity:1" />
    <path
       style="fill:#f2f2f2;fill-opacity:1;fill-rule:evenodd;stroke:none;stroke-width:0.28757995px;stroke-linecap:butt;stroke-linejoin:miter;stroke-opacity:1"
       d="m 141.22511,430.80419 4.60475,-14.78498 4.60474,-14.78497 -10.70777,2.0048 -11.8154,6.07113 -15.64821,11.23967 -23.475496,17.50692 21.173126,-10.11442 13.34586,-3.84722 11.7032,-1.63209 z"
       id="path4539"
       inkscape:connector-curvature="0"
       sodipodi:nodetypes="ccccccccccc" />
    <path
       sodipodi:nodetypes="ccccccccccc"
       inkscape:connector-curvature="0"
       id="path4541"
       d="m 158.88664,450.86323 -2.80029,-15.23015 -2.80029,-15.23015 -8.54663,6.75506 -7.63586,10.86995 -8.62493,17.22809 -12.63908,26.41677 14.03924,-18.80168 10.02507,-9.61306 9.60119,-6.88809 z"
       style="fill:#f2f2f2;fill-opacity:1;fill-rule:evenodd;stroke:none;stroke-width:0.28757995px;stroke-linecap:butt;stroke-linejoin:miter;stroke-opacity:1" />
    <path
       style="fill:#f2f2f2;fill-opacity:1;fill-rule:evenodd;stroke:none;stroke-width:0.28757995px;stroke-linecap:butt;stroke-linejoin:miter;stroke-opacity:1"
       d="m 158.88664,450.86323 -2.80029,-15.23015 -2.80029,-15.23015 -8.54663,6.75506 -7.63586,10.86995 -8.62493,17.22809 -12.63908,26.41677 14.03924,-18.80168 10.02507,-9.61306 9.60119,-6.88809 z"
       id="path4543"
       inkscape:connector-curvature="0"
       sodipodi:nodetypes="ccccccccccc" />
    <path
       sodipodi:nodetypes="ccccccccccc"
       inkscape:connector-curvature="0"
       id="path4545"
       d="m 180.59553,506.31423 -6.22777,-14.17795 -6.22777,-14.17794 -6.76407,8.53951 -4.93139,12.33465 -4.43174,18.74983 -6.22514,28.61536 9.33904,-21.52638 7.54562,-11.6609 7.75976,-8.9115 z"
       style="fill:#f2f2f2;fill-opacity:1;fill-rule:evenodd;stroke:none;stroke-width:0.28757995px;stroke-linecap:butt;stroke-linejoin:miter;stroke-opacity:1" />
    <path
       style="fill:#f2f2f2;fill-opacity:1;fill-rule:evenodd;stroke:none;stroke-width:0.28757995px;stroke-linecap:butt;stroke-linejoin:miter;stroke-opacity:1"
       d="m 188.3737,499.24316 -6.22777,-14.17795 -6.22777,-14.17794 -6.76407,8.53951 -4.93139,12.33465 -4.43174,18.74983 -6.22514,28.61536 9.33904,-21.52638 7.54562,-11.6609 7.75976,-8.9115 z"
       id="path4547"
       inkscape:connector-curvature="0"
       sodipodi:nodetypes="ccccccccccc" />
    <path
       sodipodi:nodetypes="ccccccccccc"
       inkscape:connector-curvature="0"
       id="path4549"
       d="m 230.093,514.79951 -6.22777,-14.17795 -6.22777,-14.17794 -6.76407,8.53951 -4.93139,12.33465 -4.43174,18.74983 -6.22514,28.61536 9.33904,-21.52638 7.54562,-11.6609 7.75976,-8.9115 z"
       style="fill:#f2f2f2;fill-opacity:1;fill-rule:evenodd;stroke:none;stroke-width:0.28757995px;stroke-linecap:butt;stroke-linejoin:miter;stroke-opacity:1" />
    <path
       style="fill:#f2f2f2;fill-opacity:1;fill-rule:evenodd;stroke:none;stroke-width:0.28757995px;stroke-linecap:butt;stroke-linejoin:miter;stroke-opacity:1"
       d="m 247.77067,528.94165 -6.22777,-14.17795 -6.22777,-14.17794 -6.76407,8.53951 -4.93139,12.33465 -4.43174,18.74983 -6.22514,28.61536 9.33904,-21.52638 7.54562,-11.6609 7.75976,-8.9115 z"
       id="path4551"
       inkscape:connector-curvature="0"
       sodipodi:nodetypes="ccccccccccc" />
    <path
       sodipodi:nodetypes="ccccccccccc"
       inkscape:connector-curvature="0"
       id="path4553"
       d="m 263.63287,537.04022 -7.11574,-13.75375 -7.11574,-13.75373 -6.208,8.9519 -4.13797,12.62297 -3.23185,18.99347 -4.39499,28.95298 7.95288,-22.07611 6.78971,-12.11663 7.17806,-9.38639 z"
       style="fill:#f2f2f2;fill-opacity:1;fill-rule:evenodd;stroke:none;stroke-width:0.28757995px;stroke-linecap:butt;stroke-linejoin:miter;stroke-opacity:1" />
    <path
       style="fill:#f2f2f2;fill-opacity:1;fill-rule:evenodd;stroke:none;stroke-width:0.28757995px;stroke-linecap:butt;stroke-linejoin:miter;stroke-opacity:1"
       d="m 263.12869,543.08249 -7.99256,-13.26342 -7.99256,-13.26341 -5.61449,9.33559 -3.31079,12.86472 -1.99351,19.16305 -2.50843,29.17703 6.50472,-22.54532 5.98978,-12.53138 6.55435,-9.83206 z"
       id="path4555"
       inkscape:connector-curvature="0"
       sodipodi:nodetypes="ccccccccccc" />
    <path
       sodipodi:nodetypes="ccccccccccc"
       inkscape:connector-curvature="0"
       id="path4557"
       d="m 264.83394,527.28082 -9.48854,-12.23792 -9.48854,-12.23792 -4.48443,9.92802 -1.7839,13.16359 0.26078,19.2647 0.92026,29.2702 3.82402,-23.15124 4.48348,-13.14577 5.3598,-10.53098 z"
       style="fill:#f2f2f2;fill-opacity:1;fill-rule:evenodd;stroke:none;stroke-width:0.28757995px;stroke-linecap:butt;stroke-linejoin:miter;stroke-opacity:1" />
    <path
       sodipodi:nodetypes="ccccccccc"
       inkscape:connector-curvature="0"
       id="path4559"
       d="m 107.67114,422.26947 0.37704,-10.6874 -0.14346,-4.44156 -0.25499,-5.45315 -7.18868,-0.008 c -3.642706,3.06801 -5.925897,4.6179 -9.105795,8.14372 l 5.974378,3.09306 5.877327,4.3953 c 1.87142,2.54608 2.28493,2.68255 4.46418,4.95841 z"
       style="fill:#f2f2f2;fill-opacity:1;fill-rule:evenodd;stroke:none;stroke-width:1px;stroke-linecap:butt;stroke-linejoin:miter;stroke-opacity:1"
       inkscape:transform-center-x="3.9160357"
       inkscape:transform-center-y="9.849817" />
    <path
       inkscape:transform-center-y="7.811867"
       inkscape:transform-center-x="-1.0351593"
       style="fill:#f2f2f2;fill-opacity:1;fill-rule:evenodd;stroke:none;stroke-width:1px;stroke-linecap:butt;stroke-linejoin:miter;stroke-opacity:1"
       d="m 110.93892,425.93496 -3.39266,-10.14163 -1.69107,-4.10954 -2.15007,-5.01787 -6.735484,2.51203 c -2.336347,4.15012 -3.931495,6.40193 -5.673935,10.81861 l 6.679482,0.80292 7.045007,2.05658 c 2.64508,1.72867 3.08019,1.71155 5.91886,3.07925 z"
       id="path4561"
       inkscape:connector-curvature="0"
       sodipodi:nodetypes="ccccccccc" />
    <path
       sodipodi:nodetypes="ccccccccc"
       inkscape:connector-curvature="0"
       id="path4563"
       d="m 117.30288,445.73395 -3.39266,-10.14163 -1.69107,-4.10954 -2.15007,-5.01787 -6.73548,2.51203 c -2.33635,4.15012 -3.931498,6.40193 -5.673938,10.81861 l 6.679478,0.80292 7.04501,2.05658 c 2.64508,1.72867 3.08019,1.71155 5.91886,3.07925 z"
       style="fill:#f2f2f2;fill-opacity:1;fill-rule:evenodd;stroke:none;stroke-width:1px;stroke-linecap:butt;stroke-linejoin:miter;stroke-opacity:1"
       inkscape:transform-center-x="-1.0351593"
       inkscape:transform-center-y="7.811867" />
    <path
       inkscape:transform-center-y="7.811867"
       inkscape:transform-center-x="-1.0351593"
       style="fill:#f2f2f2;fill-opacity:1;fill-rule:evenodd;stroke:none;stroke-width:1px;stroke-linecap:butt;stroke-linejoin:miter;stroke-opacity:1"
       d="m 126.49527,455.63344 -3.39266,-10.14163 -1.69107,-4.10954 -2.15007,-5.01787 -6.73548,2.51203 c -2.33635,4.15012 -3.9315,6.40193 -5.67394,10.81861 l 6.67948,0.80292 7.04501,2.05658 c 2.64508,1.72867 3.08019,1.71155 5.91886,3.07925 z"
       id="path4565"
       inkscape:connector-curvature="0"
       sodipodi:nodetypes="ccccccccc" />
    <path
       sodipodi:nodetypes="ccccccccc"
       inkscape:connector-curvature="0"
       id="path4567"
       d="m 136.02,468.76852 -5.28483,-9.29696 -2.45187,-3.70626 -3.07742,-4.50902 -6.12458,3.76384 c -1.49213,4.52278 -2.62306,7.03995 -3.48102,11.70975 l 6.70894,-0.50031 7.30938,0.65931 c 2.9288,1.1861 3.35244,1.08539 6.40159,1.87997 z"
       style="fill:#f2f2f2;fill-opacity:1;fill-rule:evenodd;stroke:none;stroke-width:1px;stroke-linecap:butt;stroke-linejoin:miter;stroke-opacity:1"
       inkscape:transform-center-x="-3.8077093"
       inkscape:transform-center-y="6.268982" />
    <path
       inkscape:transform-center-y="6.268982"
       inkscape:transform-center-x="-3.8077093"
       style="fill:#f2f2f2;fill-opacity:1;fill-rule:evenodd;stroke:none;stroke-width:1px;stroke-linecap:butt;stroke-linejoin:miter;stroke-opacity:1"
       d="m 143.09107,478.66801 -5.28483,-9.29696 -2.45187,-3.70626 -3.07742,-4.50902 -6.12458,3.76384 c -1.49213,4.52278 -2.62306,7.03995 -3.48102,11.70975 l 6.70894,-0.50031 7.30938,0.65931 c 2.9288,1.1861 3.35244,1.08539 6.40159,1.87997 z"
       id="path4569"
       inkscape:connector-curvature="0"
       sodipodi:nodetypes="ccccccccc" />
    <path
       sodipodi:nodetypes="ccccccccc"
       inkscape:connector-curvature="0"
       id="path4571"
       d="m 147.33371,488.5675 -5.28483,-9.29696 -2.45187,-3.70626 -3.07742,-4.50902 -6.12458,3.76384 c -1.49213,4.52278 -2.62306,7.03995 -3.48102,11.70975 l 6.70894,-0.50031 7.30938,0.65931 c 2.9288,1.1861 3.35244,1.08539 6.40159,1.87997 z"
       style="fill:#f2f2f2;fill-opacity:1;fill-rule:evenodd;stroke:none;stroke-width:1px;stroke-linecap:butt;stroke-linejoin:miter;stroke-opacity:1"
       inkscape:transform-center-x="-3.8077093"
       inkscape:transform-center-y="6.268982" />
    <path
       inkscape:transform-center-y="6.268982"
       inkscape:transform-center-x="-3.8077093"
       style="fill:#f2f2f2;fill-opacity:1;fill-rule:evenodd;stroke:none;stroke-width:1px;stroke-linecap:butt;stroke-linejoin:miter;stroke-opacity:1"
       d="m 149.45503,492.10303 -5.28483,-9.29696 -2.45187,-3.70626 -3.07742,-4.50902 -6.12458,3.76384 c -1.49213,4.52278 -2.62306,7.03995 -3.48102,11.70975 l 6.70894,-0.50031 7.30938,0.65931 c 2.9288,1.1861 3.35244,1.08539 6.40159,1.87997 z"
       id="path4573"
       inkscape:connector-curvature="0"
       sodipodi:nodetypes="ccccccccc" />
    <path
       sodipodi:nodetypes="ccccccccc"
       inkscape:connector-curvature="0"
       id="path4575"
       d="m 157.94031,503.41674 -5.28483,-9.29696 -2.45187,-3.70626 -3.07742,-4.50902 -6.12458,3.76384 c -1.49213,4.52278 -2.62306,7.03995 -3.48102,11.70975 l 6.70894,-0.50031 7.30938,0.65931 c 2.9288,1.1861 3.35244,1.08539 6.40159,1.87997 z"
       style="fill:#f2f2f2;fill-opacity:1;fill-rule:evenodd;stroke:none;stroke-width:1px;stroke-linecap:butt;stroke-linejoin:miter;stroke-opacity:1"
       inkscape:transform-center-x="-3.8077093"
       inkscape:transform-center-y="6.268982" />
    <path
       inkscape:transform-center-y="7.268432"
       inkscape:transform-center-x="-2.0783193"
       style="fill:#f2f2f2;fill-opacity:1;fill-rule:evenodd;stroke:none;stroke-width:1px;stroke-linecap:butt;stroke-linejoin:miter;stroke-opacity:1"
       d="m 181.46737,528.34263 -4.11645,-9.87004 -1.98354,-3.97663 -2.50695,-4.84943 -6.5364,2.99205 c -2.03044,4.30806 -3.45874,6.66922 -4.87756,11.20023 l 6.72003,0.31829 7.17518,1.54226 c 2.76304,1.53306 3.19578,1.48455 6.12584,2.64361 z"
       id="path4577"
       inkscape:connector-curvature="0"
       sodipodi:nodetypes="ccccccccc" />
    <path
       sodipodi:nodetypes="ccccccccc"
       inkscape:connector-curvature="0"
       id="path4579"
       d="m 190.61009,523.52162 -8.76411,-6.12807 -3.80548,-2.29484 -4.71507,-2.75134 -3.9158,6.02854 c 0.59389,4.7254 0.65304,7.48431 1.88281,12.07025 l 5.84454,-3.33188 6.88465,-2.54231 c 3.15438,-0.18602 3.49376,-0.45884 6.58877,-1.05014 z"
       style="fill:#f2f2f2;fill-opacity:1;fill-rule:evenodd;stroke:none;stroke-width:1px;stroke-linecap:butt;stroke-linejoin:miter;stroke-opacity:1"
       inkscape:transform-center-x="-8.5100193"
       inkscape:transform-center-y="5.427807" />
    <path
       inkscape:transform-center-y="5.427807"
       inkscape:transform-center-x="-8.5100193"
       style="fill:#f2f2f2;fill-opacity:1;fill-rule:evenodd;stroke:none;stroke-width:1px;stroke-linecap:butt;stroke-linejoin:miter;stroke-opacity:1"
       d="m 194.85273,530.59269 -8.76411,-6.12807 -3.80548,-2.29484 -4.71507,-2.75134 -3.9158,6.02854 c 0.59389,4.7254 0.65304,7.48431 1.88281,12.07025 l 5.84454,-3.33188 6.88465,-2.54231 c 3.15438,-0.18602 3.49376,-0.45884 6.58877,-1.05014 z"
       id="path4581"
       inkscape:connector-curvature="0"
       sodipodi:nodetypes="ccccccccc" />
    <path
       sodipodi:nodetypes="ccccccccc"
       inkscape:connector-curvature="0"
       id="path4583"
       d="m 199.80248,536.95665 -8.76411,-6.12807 -3.80548,-2.29484 -4.71507,-2.75134 -3.9158,6.02854 c 0.59389,4.7254 0.65304,7.48431 1.88281,12.07025 l 5.84454,-3.33188 6.88465,-2.54231 c 3.15438,-0.18602 3.49376,-0.45884 6.58877,-1.05014 z"
       style="fill:#f2f2f2;fill-opacity:1;fill-rule:evenodd;stroke:none;stroke-width:1px;stroke-linecap:butt;stroke-linejoin:miter;stroke-opacity:1"
       inkscape:transform-center-x="-8.5100193"
       inkscape:transform-center-y="5.427807" />
    <path
       inkscape:transform-center-y="5.427807"
       inkscape:transform-center-x="-8.5100193"
       style="fill:#f2f2f2;fill-opacity:1;fill-rule:evenodd;stroke:none;stroke-width:1px;stroke-linecap:butt;stroke-linejoin:miter;stroke-opacity:1"
       d="m 222.4299,545.44193 -8.76411,-6.12807 -3.80548,-2.29484 -4.71507,-2.75134 -3.9158,6.02854 c 0.59389,4.7254 0.65304,7.48431 1.88281,12.07025 l 5.84454,-3.33188 6.88465,-2.54231 c 3.15438,-0.18602 3.49376,-0.45884 6.58877,-1.05014 z"
       id="path4585"
       inkscape:connector-curvature="0"
       sodipodi:nodetypes="ccccccccc" />
    <path
       sodipodi:nodetypes="ccccccccc"
       inkscape:connector-curvature="0"
       id="path4587"
       d="m 229.50097,555.34142 -8.76411,-6.12807 -3.80548,-2.29484 -4.71507,-2.75134 -3.9158,6.02854 c 0.59389,4.7254 0.65304,7.48431 1.88281,12.07025 l 5.84454,-3.33188 6.88465,-2.54231 c 3.15438,-0.18602 3.49376,-0.45884 6.58877,-1.05014 z"
       style="fill:#f2f2f2;fill-opacity:1;fill-rule:evenodd;stroke:none;stroke-width:1px;stroke-linecap:butt;stroke-linejoin:miter;stroke-opacity:1"
       inkscape:transform-center-x="-8.5100193"
       inkscape:transform-center-y="5.427807" />
    <path
       inkscape:transform-center-y="4.890132"
       inkscape:transform-center-x="-9.6508093"
       style="fill:#f2f2f2;fill-opacity:1;fill-rule:evenodd;stroke:none;stroke-width:1px;stroke-linecap:butt;stroke-linejoin:miter;stroke-opacity:1"
       d="m 247.1736,549.59039 -10.25629,-3.02844 -4.33719,-0.96788 -5.34465,-1.11198 -1.79916,6.95988 c 2.06346,4.29234 2.99549,6.88973 5.61764,10.84794 l 4.48429,-5.0151 5.72127,-4.59661 c 2.93211,-1.1779 3.16731,-1.54436 5.91445,-3.08771 z"
       id="path4589"
       inkscape:connector-curvature="0"
       sodipodi:nodetypes="ccccccccc" />
    <path
       sodipodi:nodetypes="ccccccccc"
       inkscape:connector-curvature="0"
       id="path4591"
       d="m 235.85989,549.59039 -10.25629,-3.02844 -4.33719,-0.96788 -5.34465,-1.11198 -1.79916,6.95988 c 2.06346,4.29234 2.99549,6.88973 5.61764,10.84794 l 4.48429,-5.0151 5.72127,-4.59661 c 2.93211,-1.1779 3.16731,-1.54436 5.91445,-3.08771 z"
       style="fill:#f2f2f2;fill-opacity:1;fill-rule:evenodd;stroke:none;stroke-width:1px;stroke-linecap:butt;stroke-linejoin:miter;stroke-opacity:1"
       inkscape:transform-center-x="-9.6508093"
       inkscape:transform-center-y="4.890132" />
    <path
       inkscape:transform-center-y="4.890132"
       inkscape:transform-center-x="-9.6508093"
       style="fill:#f2f2f2;fill-opacity:1;fill-rule:evenodd;stroke:none;stroke-width:1px;stroke-linecap:butt;stroke-linejoin:miter;stroke-opacity:1"
       d="m 262.02284,553.83303 -10.25629,-3.02844 -4.33719,-0.96788 -5.34465,-1.11198 -1.79916,6.95988 c 2.06346,4.29234 2.99549,6.88973 5.61764,10.84794 l 4.48429,-5.0151 5.72127,-4.59661 c 2.93211,-1.1779 3.16731,-1.54436 5.91445,-3.08771 z"
       id="path4593"
       inkscape:connector-curvature="0"
       sodipodi:nodetypes="ccccccccc" />
  </g>
</svg>
